<svg width="56" height="56" viewBox="0 0 56 56" fill="none" xmlns="http://www.w3.org/2000/svg">
<g filter="url(#filter0_d)">
<circle cx="28" cy="24" r="21" fill="#111111"/>
<circle cx="28" cy="14" r="2" fill="url(#paint0_linear)"/>
<circle cx="28" cy="24" r="2" fill="url(#paint1_linear)"/>
<circle cx="28" cy="34" r="2" fill="url(#paint2_linear)"/>
</g>
<defs>
<filter id="filter0_d" x="0" y="0" width="56" height="56" filterUnits="userSpaceOnUse" color-interpolation-filters="sRGB">
<feFlood flood-opacity="0" result="BackgroundImageFix"/>
<feColorMatrix in="SourceAlpha" type="matrix" values="0 0 0 0 0 0 0 0 0 0 0 0 0 0 0 0 0 0 127 0"/>
<feOffset dy="4"/>
<feGaussianBlur stdDeviation="3.5"/>
<feColorMatrix type="matrix" values="0 0 0 0 0 0 0 0 0 0 0 0 0 0 0 0 0 0 0.1 0"/>
<feBlend mode="normal" in2="BackgroundImageFix" result="effect1_dropShadow"/>
<feBlend mode="normal" in="SourceGraphic" in2="effect1_dropShadow" result="shape"/>
</filter>
<linearGradient id="paint0_linear" x1="28" y1="18" x2="32" y2="14" gradientUnits="userSpaceOnUse">
<stop stop-color="#D41E72"/>
<stop offset="1" stop-color="#F3784F"/>
</linearGradient>
<linearGradient id="paint1_linear" x1="28" y1="28" x2="32" y2="24" gradientUnits="userSpaceOnUse">
<stop stop-color="#D41E72"/>
<stop offset="1" stop-color="#F3784F"/>
</linearGradient>
<linearGradient id="paint2_linear" x1="28" y1="38" x2="32" y2="34" gradientUnits="userSpaceOnUse">
<stop stop-color="#D41E72"/>
<stop offset="1" stop-color="#F3784F"/>
</linearGradient>
</defs>
</svg>
